Simulating data • genstats
…
gen_sim('simple_sim_example', N=1000, M=1000, C=50, block_size = 100, fam=FALSE)

Now there will exist a rds file in the working directory with the
data, which we will load.

simple_data = snp_attach('simple_sim_example.rds')
simple_data
#> $genotypes
#> A Filebacked Big Matrix of type 'code 256' with 1000 rows and 1000 columns.
#> 
#> $map
#> # A tibble: 1,000 x 3
#>      snp  beta    MAF
#>    <int> <dbl>  <dbl>
#>  1     1     0 0.241 
#>  2     2     0 0.0739
#>  3     3     0 0.138 
#>  4     4     0 0.110 
#>  5     5     0 0.0831
#>  6     6     0 0.219 
#>  7     7     0 0.217 
#>  8     8     0 0.318 
#>  9     9     0 0.387 
#> 10    10     0 0.113 
#> # ... with 990 more rows
#> 
#> $fam
#> # A tibble: 1,000 x 4
#>      FID    l_g_0   l_f_0 pheno_0
#>    <int>    <dbl>   <dbl>   <dbl>
#>  1     1 -0.360   -0.0695       0
#>  2     2  1.22     0.827        0
#>  3     3 -0.00764 -0.366        0
#>  4     4  0.308    1.38         0
#>  5     5  0.0872  -1.28         0
#>  6     6 -0.0719   0.256        0
#>  7     7 -1.61    -2.57         0
#>  8     8 -1.32    -1.35         0
#>  9     9 -1.23    -1.08         0
#> 10    10 -2.00    -2.61         0
#> # ... with 990 more rows

Looking at the data we see that the file contains a list. We can here
find the genotypes (G), liabilities (fam) and information for each SNP
(map).

simple_data$genotypes[1:5,1:5]
#>      [,1] [,2] [,3] [,4] [,5]
#> [1,]    1    1    2    0    0
#> [2,]    1    0    0    0    0
#> [3,]    0    0    0    0    1
#> [4,]    1    0    0    0    0
#> [5,]    0    1    0    0    0
simple_data$fam
#> # A tibble: 1,000 x 4
#>      FID    l_g_0   l_f_0 pheno_0
#>    <int>    <dbl>   <dbl>   <dbl>
#>  1     1 -0.360   -0.0695       0
#>  2     2  1.22     0.827        0
#>  3     3 -0.00764 -0.366        0
#>  4     4  0.308    1.38         0
#>  5     5  0.0872  -1.28         0
#>  6     6 -0.0719   0.256        0
#>  7     7 -1.61    -2.57         0
#>  8     8 -1.32    -1.35         0
#>  9     9 -1.23    -1.08         0
#> 10    10 -2.00    -2.61         0
#> # ... with 990 more rows
simple_data$map
#> # A tibble: 1,000 x 3
#>      snp  beta    MAF
#>    <int> <dbl>  <dbl>
#>  1     1     0 0.241 
#>  2     2     0 0.0739
#>  3     3     0 0.138 
#>  4     4     0 0.110 
#>  5     5     0 0.0831
#>  6     6     0 0.219 
#>  7     7     0 0.217 
#>  8     8     0 0.318 
#>  9     9     0 0.387 
#> 10    10     0 0.113 
#> # ... with 990 more rows
…
